<?xml version="1.0" encoding="UTF-8" standalone="no"?>
<!-- Created with Inkscape (http://www.inkscape.org/) -->

<svg
   xmlns:dc="http://purl.org/dc/elements/1.1/"
   xmlns:cc="http://creativecommons.org/ns#"
   xmlns:rdf="http://www.w3.org/1999/02/22-rdf-syntax-ns#"
   xmlns:svg="http://www.w3.org/2000/svg"
   xmlns="http://www.w3.org/2000/svg"
   xmlns:sodipodi="http://sodipodi.sourceforge.net/DTD/sodipodi-0.dtd"
   xmlns:inkscape="http://www.inkscape.org/namespaces/inkscape"
   id="svg7384"
   height="16"
   width="16"
   version="1.1"
   inkscape:version="0.91 r13725"
   sodipodi:docname="my-touchscreen-disabled.svg">
  <defs
     id="defs4202" />
  <sodipodi:namedview
     pagecolor="#ffffff"
     bordercolor="#666666"
     borderopacity="1"
     objecttolerance="10"
     gridtolerance="10"
     guidetolerance="10"
     inkscape:pageopacity="0"
     inkscape:pageshadow="2"
     inkscape:window-width="1920"
     inkscape:window-height="1064"
     id="namedview4200"
     showgrid="false"
     inkscape:zoom="38.846679"
     inkscape:cx="7.5057413"
     inkscape:cy="9.8160239"
     inkscape:window-x="0"
     inkscape:window-y="16"
     inkscape:window-maximized="0"
     inkscape:current-layer="svg7384" />
  <metadata
     id="metadata90">
    <rdf:RDF>
      <cc:Work
         rdf:about="">
        <dc:format>image/svg+xml</dc:format>
        <dc:type
           rdf:resource="http://purl.org/dc/dcmitype/StillImage" />
        <dc:title>Gnome Symbolic Icon Theme</dc:title>
      </cc:Work>
    </rdf:RDF>
  </metadata>
  <title
     id="title9167">Gnome Symbolic Icon Theme</title>
  <g
     id="g4221">
    <path
       id="rect5837"
       d="M 3.0292969 1 C 1.3600969 1 -0.001953125 2.36215 -0.001953125 4.03125 L -0.001953125 11.96875 C -0.001953125 13.63795 1.3601969 15 3.0292969 15 L 11.966797 15 C 13.635997 15 14.998047 13.63785 14.998047 11.96875 L 14.998047 4.03125 C 14.998047 2.36205 13.635897 1 11.966797 1 L 3.0292969 1 z M 3.4375 1.6386719 L 11.560547 1.6386719 C 13.077447 1.6386719 14.314453 2.8755866 14.314453 4.3925781 L 14.314453 11.607422 C 14.314453 13.124323 13.077538 14.361328 11.560547 14.361328 L 3.4375 14.361328 C 1.9205994 14.361328 0.68359375 13.124414 0.68359375 11.607422 L 0.68359375 4.3925781 C 0.68359375 2.8756774 1.9205085 1.6386719 3.4375 1.6386719 z "
       style="color:#bebebe;text-indent:0;text-transform:none;block-progression:tb;fill:#bebebe" />
    <g
       style="fill:#bebebe"
       transform="matrix(0.71832054,-0.69571231,0.69571231,0.71832054,-4.3411325,8.5383401)"
       id="g4239">
      <path
         style="fill:#bebebe;fill-opacity:1;stroke:none;stroke-width:0.75"
         d="m 11.899538,11.399991 c 0.764362,1.521313 0.296575,3.09201 -1.523669,3.778204 C 8.7985564,15.772807 7.3255318,14.98563 6.4311371,13.698737 5.7885224,12.774115 5.4958922,11.915444 5.8143869,11.342945 c 0.148293,-0.26656 0.5491671,-0.01137 0.8416132,-0.197003 0.3103985,-0.197031 0.3921016,-0.59218 0.5565635,-0.704689 0.2878686,-0.196931 0.4728447,0.177928 0.7359959,-0.0096 C 8.1360143,10.298067 8.1873579,9.9487215 8.3157856,9.8090984 8.4051042,9.7119972 8.5592347,9.6955111 8.6832439,9.6416776 10.30511,8.9376149 11.135177,9.8786773 11.899538,11.399991 Z"
         id="path4222"
         inkscape:connector-curvature="0"
         sodipodi:nodetypes="ssssssssss" />
      <path
         style="fill:#bebebe;fill-opacity:1;stroke:none;stroke-width:0.75"
         d="m 10.251453,8.97507 c 1.068933,2.279657 1.812843,4.148784 1.410102,4.33763 C 11.258815,13.501545 10.032619,11.882351 8.9636872,9.6026952 7.8947553,7.3230381 6.8109571,5.464087 7.7906109,5.0573334 8.4014261,4.8037221 9.1825229,6.6954136 10.251453,8.97507 Z"
         id="ellipse4232"
         inkscape:connector-curvature="0"
         sodipodi:nodetypes="sssss" />
      <path
         style="fill:#bebebe;fill-opacity:1;stroke:none;stroke-width:0.75"
         d="m 12.315132,11.060638 c -0.3754,1.838024 -0.09037,1.872154 -0.354916,2.649802 -0.16604,0.488102 -1.029629,-1.04631 -1.152642,-2.438368 -0.123011,-1.3920573 0.19579,-2.5371513 0.707175,-2.6027168 1.127433,-0.1445489 1.080035,1.0220688 0.800383,2.3912828 z"
         id="ellipse4234"
         inkscape:connector-curvature="0"
         sodipodi:nodetypes="sssss" />
    </g>
    <path
       inkscape:connector-curvature="0"
       id="path4969"
       d="M 8.3984681,5.9307617 1.6555993,7.3288976"
       style="fill:none;fill-rule:evenodd;stroke:#bebebe;stroke-width:0.92744803px;stroke-linecap:round;stroke-linejoin:miter;stroke-opacity:1" />
    <path
       style="fill:none;fill-rule:evenodd;stroke:#bebebe;stroke-width:0.92744803px;stroke-linecap:round;stroke-linejoin:miter;stroke-opacity:1"
       d="m 4.3279657,3.2583952 1.398136,6.7428688"
       id="path4971"
       inkscape:connector-curvature="0" />
  </g>
</svg>
